Statistical inference on used car data using linear regression in R - 4 Results and discussion
…
4  Results and discussion

4.1 EDA

The raw data was preprocessed as described in the Data Preprocessing section of the Theory chapter (-?sec-preprocess). Here we take a closer look at the data.

Overview

# A tibble: 7,535 × 18
   id       make  model make_model fuel  gearbox mileage  year type  drive    hp
   <chr>    <fct> <fct> <fct>      <fct> <fct>     <int> <int> <fct> <fct> <int>
 1 1400504… Audi  A3    Audi A3    Bens… Manuell  207611  2005 Halv… Fyrh…   200
 2 1400489… Skoda Octa… Skoda Oct… Dies… Manuell   21218  2014 Kombi Fyrh…   105
 3 1400612… BMW   420   BMW 420    Dies… Automat   19586  2015 Halv… Tvåh…   184
 4 1400546… Kia   Opti… Kia Optima Dies… Automat   23700  2012 Sedan Tvåh…   136
 5 1400603… Ford  S-Max Ford S-Max Dies… Automat   20850  2012 Fami… Tvåh…   200
 6 1400631… Volk… Golf  Volkswage… Bens… Automat   10840  2017 Kombi Fyrh…   180
 7 1400643… Saab  9-3   Saab 9-3   Bens… Automat   26340  2006 Kombi Tvåh…   176
 8 1400617… Merc… E     Mercedes-… Dies… Automat   55423  2006 Kombi Tvåh…   150
 9 1400675… BMW   525   BMW 525    Bens… Automat   28557  2006 Kombi Tvåh…   218
10 1400592… Audi  A6    Audi A6    Dies… Automat   24219  2013 Kombi Fyrh…   204
# ℹ 7,525 more rows
# ℹ 7 more variables: color <fct>, first_in_traffic <date>, region <fct>,
#   price <int>, age <dbl>, days_in_traffic <int>, miles_per_day <dbl>
…
